\relax 
\citation{theseul}
\@writefile{toc}{\contentsline {chapter}{\numberline {1}Introduction}{2}}
\@writefile{lof}{\addvspace {10\p@ }}
\@writefile{lot}{\addvspace {10\p@ }}
\@writefile{toc}{\contentsline {section}{\numberline {1}Historique de la G\IeC {\'e}olocalisation}{2}}
\@writefile{toc}{\contentsline {subsection}{\numberline {1.1}L'\IeC {\'E}gypte antique}{2}}
\citation{reportlyon}
\citation{reportlyon}
\@writefile{toc}{\contentsline {subsection}{\numberline {1.2}La Gr\IeC {\`e}ce antique}{3}}
\@writefile{toc}{\contentsline {subsection}{\numberline {1.3}Naissance de la g\IeC {\'e}olocalisation moderne}{3}}
\@writefile{toc}{\contentsline {subsection}{\numberline {1.4}L'apparition du GPS}{4}}
\@setckpt{introduction}{
\setcounter{page}{5}
\setcounter{equation}{0}
\setcounter{enumi}{0}
\setcounter{enumii}{0}
\setcounter{enumiii}{0}
\setcounter{enumiv}{0}
\setcounter{footnote}{0}
\setcounter{mpfootnote}{0}
\setcounter{part}{0}
\setcounter{chapter}{1}
\setcounter{section}{1}
\setcounter{subsection}{4}
\setcounter{subsubsection}{0}
\setcounter{paragraph}{0}
\setcounter{subparagraph}{0}
\setcounter{figure}{0}
\setcounter{table}{0}
\setcounter{ContinuedFloat}{0}
}
