This is BibTeX, Version 0.99d (TeX Live 2013/Debian)
Capacity: max_strings=35307, hash_size=35307, hash_prime=30011
The top-level auxiliary file: main.aux
A level-1 auxiliary file: introduction.aux
A level-1 auxiliary file: type_gl.aux
A level-1 auxiliary file: services.aux
A level-1 auxiliary file: conclusion.aux
The style file: plain.bst
Database file #1: refs.bib
Warning--entry type for "gomogi" isn't style-file defined
--line 14 of file refs.bib
Warning--entry type for "lbshowto" isn't style-file defined
--line 19 of file refs.bib
Warning--entry type for "ericson" isn't style-file defined
--line 24 of file refs.bib
Too many commas in name 1 of "Antonin AUROY,Mihai-Bogdan BADAU,Sanaa BAHOU,Pierrick BARREAU,Stephanie BERNHARDT" for entry reportlyon
while executing---line 1049 of file plain.bst
Too many commas in name 1 of "Antonin AUROY,Mihai-Bogdan BADAU,Sanaa BAHOU,Pierrick BARREAU,Stephanie BERNHARDT" for entry reportlyon
while executing---line 1049 of file plain.bst
Warning--to sort, need author or key in lbshowto
Warning--to sort, need author or key in ericson
Too many commas in name 1 of "Antonin AUROY,Mihai-Bogdan BADAU,Sanaa BAHOU,Pierrick BARREAU,Stephanie BERNHARDT" for entry reportlyon
while executing---line 1090 of file plain.bst
Too many commas in name 1 of "Antonin AUROY,Mihai-Bogdan BADAU,Sanaa BAHOU,Pierrick BARREAU,Stephanie BERNHARDT" for entry reportlyon
while executing---line 1090 of file plain.bst
You've used 5 entries,
            2118 wiz_defined-function locations,
            518 strings with 4796 characters,
and the built_in function-call counts, 899 in all, are:
= -- 82
> -- 23
< -- 0
+ -- 11
- -- 6
* -- 31
:= -- 148
add.period$ -- 10
call.type$ -- 5
change.case$ -- 19
chr.to.int$ -- 0
cite$ -- 7
duplicate$ -- 37
empty$ -- 98
format.name$ -- 6
if$ -- 194
int.to.chr$ -- 0
int.to.str$ -- 5
missing$ -- 0
newline$ -- 23
num.names$ -- 6
pop$ -- 30
preamble$ -- 1
purify$ -- 13
quote$ -- 0
skip$ -- 41
stack$ -- 0
substring$ -- 25
swap$ -- 3
text.length$ -- 0
text.prefix$ -- 0
top$ -- 0
type$ -- 20
warning$ -- 2
while$ -- 6
width$ -- 6
write$ -- 41
(There were 4 error messages)
