\begin{thebibliography}{1}

\bibitem{ericson}
Ericsson location based services,
  http://www.ericsson.com/ourportfolio/telecom-operators/location-based-services?nav=marketcategory007,
  consulté le 2015-11-18.

\bibitem{lbshowto}
How can operators tap into the power of location based services?30-04-2015,
  http://telecoms.com/opinion/how-can-operators-tap-into-the-power-of-location-based-services/,
  consulté le 2015-11-13.

\bibitem{reportlyon}
Sanaa BAHOU Pierrick BARREAU Stephanie~BERNHARDT Antonin~AUROY,
  Mihai-Bogdan~BADAU.
\newblock Systèmes de géolocalisation.
\newblock Technical report, INSA Lyon, Janvier 2010.

\bibitem{theseul}
Karim CHAARI.
\newblock Conception et implémentation d'une plateforme de géolocalisation.
\newblock Master's thesis, Université Laval, 2004.

\bibitem{gomogi}
Michael Diener.
\newblock Location based services, 2011,
  http://fr.slideshare.net/gomogi/summer-uni2011-mobilemapsorientation,
  consulté le 2015-11-19.

\end{thebibliography}
