\contentsline {chapter}{\numberline {1}Introduction}{2}
\contentsline {section}{\numberline {1}Historique de la G\IeC {\'e}olocalisation}{2}
\contentsline {subsection}{\numberline {1.1}L'\IeC {\'E}gypte antique}{2}
\contentsline {subsection}{\numberline {1.2}La Gr\IeC {\`e}ce antique}{3}
\contentsline {subsection}{\numberline {1.3}Naissance de la g\IeC {\'e}olocalisation moderne}{3}
\contentsline {subsection}{\numberline {1.4}L'apparition du GPS}{4}
\contentsline {chapter}{\numberline {2}Diff\IeC {\'e}rentes approches dans la g\IeC {\'e}olocalisation}{5}
\contentsline {section}{\numberline {1}G\IeC {\'e}olocalisation par satellite}{5}
\contentsline {section}{\numberline {2}G\IeC {\'e}olocalisation par t\IeC {\'e}l\IeC {\'e}phone portable}{5}
\contentsline {section}{\numberline {3}La g\IeC {\'e}olocalisation par adressage IP}{6}
\contentsline {section}{\numberline {4}La g\IeC {\'e}olocalisation par RFID}{6}
\contentsline {chapter}{\numberline {3}Les services g\IeC {\'e}olocalis\IeC {\'e}s \IeC {\`a} valeur ajout\IeC {\'e}e}{7}
\contentsline {section}{\numberline {1}D\IeC {\'e}finition}{7}
\contentsline {section}{\numberline {2}fonctionnement des services bas\IeC {\'e}s sur la position}{7}
\contentsline {section}{\numberline {3}Classification des services bas\IeC {\'e}s sur la localisation}{9}
\contentsline {section}{\numberline {4}Le caract\IeC {\`e}re \emph {valeur ajout\IeC {\'e}e} des services de localisation}{9}
\contentsline {section}{\numberline {5}Des probl\IeC {\`e}mes li\IeC {\'e}s au services de localisation}{10}
\contentsline {chapter}{\numberline {4}Conclusion}{11}
\contentsline {chapter}{Bibliographie}{12}
