\relax 
\@input{introduction.aux}
\@input{type_gl.aux}
\@input{services.aux}
\@input{conclusion.aux}
\bibstyle{plain}
\bibdata{refs}
\bibcite{ericson}{1}
\bibcite{lbshowto}{2}
\bibcite{reportlyon}{3}
\bibcite{theseul}{4}
\bibcite{gomogi}{5}
\@writefile{toc}{\contentsline {chapter}{Bibliographie}{12}}
