\relax 
\citation{gomogi}
\citation{lbshowto}
\@writefile{toc}{\contentsline {chapter}{\numberline {3}Les services g\IeC {\'e}olocalis\IeC {\'e}s \IeC {\`a} valeur ajout\IeC {\'e}e}{7}}
\@writefile{lof}{\addvspace {10\p@ }}
\@writefile{lot}{\addvspace {10\p@ }}
\@writefile{toc}{\contentsline {section}{\numberline {1}D\IeC {\'e}finition}{7}}
\newlabel{section:name}{{1}{7}}
\@writefile{toc}{\contentsline {section}{\numberline {2}fonctionnement des services bas\IeC {\'e}s sur la position}{7}}
\@writefile{lof}{\contentsline {figure}{\numberline {3.1}{\ignorespaces Contexte des services bas\IeC {\'e}s sur la g\IeC {\'e}olocalisation\relax }}{8}}
\providecommand*\caption@xref[2]{\@setref\relax\@undefined{#1}}
\newlabel{figure:}{{3.1}{8}}
\@writefile{lof}{\contentsline {figure}{\numberline {3.2}{\ignorespaces Infrastructures des services bas\IeC {\'e}s sur la g\IeC {\'e}olocalisation\relax }}{8}}
\newlabel{figure:}{{3.2}{8}}
\citation{gomogi}
\citation{ericson}
\@writefile{toc}{\contentsline {section}{\numberline {3}Classification des services bas\IeC {\'e}s sur la localisation}{9}}
\@writefile{toc}{\contentsline {section}{\numberline {4}Le caract\IeC {\`e}re \emph  {valeur ajout\IeC {\'e}e} des services de localisation}{9}}
\@writefile{toc}{\contentsline {section}{\numberline {5}Des probl\IeC {\`e}mes li\IeC {\'e}s au services de localisation}{10}}
\@setckpt{services}{
\setcounter{page}{11}
\setcounter{equation}{0}
\setcounter{enumi}{3}
\setcounter{enumii}{0}
\setcounter{enumiii}{0}
\setcounter{enumiv}{0}
\setcounter{footnote}{0}
\setcounter{mpfootnote}{0}
\setcounter{part}{0}
\setcounter{chapter}{3}
\setcounter{section}{5}
\setcounter{subsection}{0}
\setcounter{subsubsection}{0}
\setcounter{paragraph}{0}
\setcounter{subparagraph}{0}
\setcounter{figure}{2}
\setcounter{table}{0}
\setcounter{ContinuedFloat}{0}
}
