\relax 
\@writefile{toc}{\contentsline {chapter}{\numberline {2}Diff\IeC {\'e}rentes approches dans la g\IeC {\'e}olocalisation}{5}}
\@writefile{lof}{\addvspace {10\p@ }}
\@writefile{lot}{\addvspace {10\p@ }}
\@writefile{toc}{\contentsline {section}{\numberline {1}G\IeC {\'e}olocalisation par satellite}{5}}
\@writefile{toc}{\contentsline {section}{\numberline {2}G\IeC {\'e}olocalisation par t\IeC {\'e}l\IeC {\'e}phone portable}{5}}
\@writefile{toc}{\contentsline {section}{\numberline {3}La g\IeC {\'e}olocalisation par adressage IP}{6}}
\@writefile{toc}{\contentsline {section}{\numberline {4}La g\IeC {\'e}olocalisation par RFID}{6}}
\@setckpt{type_gl}{
\setcounter{page}{7}
\setcounter{equation}{0}
\setcounter{enumi}{0}
\setcounter{enumii}{0}
\setcounter{enumiii}{0}
\setcounter{enumiv}{0}
\setcounter{footnote}{0}
\setcounter{mpfootnote}{0}
\setcounter{part}{0}
\setcounter{chapter}{2}
\setcounter{section}{4}
\setcounter{subsection}{0}
\setcounter{subsubsection}{0}
\setcounter{paragraph}{0}
\setcounter{subparagraph}{0}
\setcounter{figure}{0}
\setcounter{table}{0}
\setcounter{ContinuedFloat}{0}
}
