\relax 
\providecommand\hyper@newdestlabel[2]{}
\providecommand\HyperFirstAtBeginDocument{\AtBeginDocument}
\HyperFirstAtBeginDocument{\ifx\hyper@anchor\@undefined
\global\let\oldcontentsline\contentsline
\gdef\contentsline#1#2#3#4{\oldcontentsline{#1}{#2}{#3}}
\global\let\oldnewlabel\newlabel
\gdef\newlabel#1#2{\newlabelxx{#1}#2}
\gdef\newlabelxx#1#2#3#4#5#6{\oldnewlabel{#1}{{#2}{#3}}}
\AtEndDocument{\ifx\hyper@anchor\@undefined
\let\contentsline\oldcontentsline
\let\newlabel\oldnewlabel
\fi}
\fi}
\global\let\hyper@last\relax 
\gdef\HyperFirstAtBeginDocument#1{#1}
\providecommand\HyField@AuxAddToFields[1]{}
\providecommand\HyField@AuxAddToCoFields[2]{}
\@writefile{toc}{\beamer@endinputifotherversion {3.24pt}}
\@writefile{nav}{\beamer@endinputifotherversion {3.24pt}}
\@writefile{nav}{\headcommand {\slideentry {0}{0}{1}{1/1}{}{0}}}
\@writefile{nav}{\headcommand {\beamer@framepages {1}{1}}}
\@writefile{nav}{\headcommand {\slideentry {0}{0}{2}{2/6}{}{0}}}
\@writefile{nav}{\headcommand {\beamer@framepages {2}{6}}}
\@writefile{toc}{\beamer@sectionintoc {1}{Introduction }{7}{0}{1}}
\@writefile{nav}{\headcommand {\sectionentry {1}{Introduction }{7}{Introduction }{0}}}
\@writefile{nav}{\headcommand {\beamer@sectionpages {1}{6}}}
\@writefile{nav}{\headcommand {\beamer@subsectionpages {1}{6}}}
\@writefile{nav}{\headcommand {\slideentry {1}{0}{3}{7/7}{}{0}}}
\@writefile{nav}{\headcommand {\beamer@framepages {7}{7}}}
\@writefile{toc}{\beamer@subsectionintoc {1}{1}{D\IeC {\'e}finition de la g\IeC {\'e}olocalisation}{8}{0}{1}}
\@writefile{nav}{\headcommand {\beamer@subsectionentry {0}{1}{1}{8}{D\IeC {\'e}finition de la g\IeC {\'e}olocalisation}}\headcommand {\beamer@subsectionpages {7}{7}}}
\@writefile{nav}{\headcommand {\slideentry {1}{1}{1}{8/11}{D\IeC {\'e}finition de la g\IeC {\'e}olocalisation}{0}}}
\@writefile{nav}{\headcommand {\beamer@framepages {8}{11}}}
\@writefile{toc}{\beamer@subsectionintoc {1}{2}{Historique de la g\IeC {\'e}olocalisation}{12}{0}{1}}
\@writefile{nav}{\headcommand {\beamer@subsectionentry {0}{1}{2}{12}{Historique de la g\IeC {\'e}olocalisation}}\headcommand {\beamer@subsectionpages {8}{11}}}
\@writefile{nav}{\headcommand {\slideentry {1}{2}{1}{12/15}{Historique de la g\IeC {\'e}olocalisation}{0}}}
\@writefile{nav}{\headcommand {\beamer@framepages {12}{15}}}
\@writefile{nav}{\headcommand {\slideentry {1}{2}{2}{16/17}{Historique de la g\IeC {\'e}olocalisation}{0}}}
\@writefile{nav}{\headcommand {\beamer@framepages {16}{17}}}
\@writefile{nav}{\headcommand {\slideentry {1}{2}{3}{18/19}{Historique de la g\IeC {\'e}olocalisation}{0}}}
\@writefile{nav}{\headcommand {\beamer@framepages {18}{19}}}
\@writefile{nav}{\headcommand {\slideentry {1}{2}{4}{20/20}{Historique de la g\IeC {\'e}olocalisation}{0}}}
\@writefile{nav}{\headcommand {\beamer@framepages {20}{20}}}
\@writefile{nav}{\headcommand {\slideentry {1}{2}{5}{21/23}{Historique de la g\IeC {\'e}olocalisation}{0}}}
\@writefile{nav}{\headcommand {\beamer@framepages {21}{23}}}
\@writefile{nav}{\headcommand {\slideentry {1}{2}{6}{24/24}{Historique de la g\IeC {\'e}olocalisation}{0}}}
\@writefile{nav}{\headcommand {\beamer@framepages {24}{24}}}
\@writefile{toc}{\beamer@sectionintoc {2}{Diff\IeC {\'e}rentes approches dans la g\IeC {\'e}olocalisation}{25}{0}{2}}
\@writefile{nav}{\headcommand {\sectionentry {2}{Diff\IeC {\'e}rentes approches dans la g\IeC {\'e}olocalisation}{25}{Diff\IeC {\'e}rentes approches dans la g\IeC {\'e}olocalisation}{0}}}
\@writefile{nav}{\headcommand {\beamer@sectionpages {7}{24}}}
\@writefile{nav}{\headcommand {\beamer@subsectionpages {12}{24}}}
\@writefile{nav}{\headcommand {\slideentry {2}{0}{7}{25/25}{}{0}}}
\@writefile{nav}{\headcommand {\beamer@framepages {25}{25}}}
\@writefile{toc}{\beamer@subsectionintoc {2}{1}{G\IeC {\'e}olocalisation par satellite}{26}{0}{2}}
\@writefile{nav}{\headcommand {\beamer@subsectionentry {0}{2}{1}{26}{G\IeC {\'e}olocalisation par satellite}}\headcommand {\beamer@subsectionpages {25}{25}}}
\@writefile{nav}{\headcommand {\slideentry {2}{1}{1}{26/27}{G\IeC {\'e}olocalisation par satellite}{0}}}
\@writefile{nav}{\headcommand {\beamer@framepages {26}{27}}}
\@writefile{toc}{\beamer@subsectionintoc {2}{2}{G\IeC {\'e}olocalisation par t\IeC {\'e}l\IeC {\'e}phone portable}{28}{0}{2}}
\@writefile{nav}{\headcommand {\beamer@subsectionentry {0}{2}{2}{28}{G\IeC {\'e}olocalisation par t\IeC {\'e}l\IeC {\'e}phone portable}}\headcommand {\beamer@subsectionpages {26}{27}}}
\@writefile{nav}{\headcommand {\slideentry {2}{2}{1}{28/29}{G\IeC {\'e}olocalisation par t\IeC {\'e}l\IeC {\'e}phone portable}{0}}}
\@writefile{nav}{\headcommand {\beamer@framepages {28}{29}}}
\@writefile{toc}{\beamer@sectionintoc {3}{Services de localisation \IeC {\`a} valeur ajout\IeC {\'e}e}{30}{0}{3}}
\@writefile{nav}{\headcommand {\sectionentry {3}{Services de localisation \IeC {\`a} valeur ajout\IeC {\'e}e}{30}{Services de localisation \IeC {\`a} valeur ajout\IeC {\'e}e}{0}}}
\@writefile{nav}{\headcommand {\beamer@sectionpages {25}{29}}}
\@writefile{nav}{\headcommand {\beamer@subsectionpages {26}{29}}}
\@writefile{nav}{\headcommand {\slideentry {3}{0}{2}{30/30}{}{0}}}
\@writefile{nav}{\headcommand {\beamer@framepages {30}{30}}}
\@writefile{toc}{\beamer@subsectionintoc {3}{1}{D\IeC {\'e}finition}{31}{0}{3}}
\@writefile{nav}{\headcommand {\beamer@subsectionentry {0}{3}{1}{31}{D\IeC {\'e}finition}}\headcommand {\beamer@subsectionpages {30}{30}}}
\@writefile{nav}{\headcommand {\slideentry {3}{1}{1}{31/33}{D\IeC {\'e}finition}{0}}}
\@writefile{nav}{\headcommand {\beamer@framepages {31}{33}}}
\@writefile{toc}{\beamer@subsectionintoc {3}{2}{Fonctionnement des services g\IeC {\'e}olocalis\IeC {\'e}s}{34}{0}{3}}
\@writefile{nav}{\headcommand {\beamer@subsectionentry {0}{3}{2}{34}{Fonctionnement des services g\IeC {\'e}olocalis\IeC {\'e}s}}\headcommand {\beamer@subsectionpages {31}{33}}}
\newlabel{figure:}{{1}{34}{Fonctionnement des services géolocalisés}{Doc-Start}{}}
\@writefile{snm}{\beamer@slide {figure:}{34}}
\@writefile{nav}{\headcommand {\slideentry {3}{2}{1}{34/35}{Fonctionnement des services g\IeC {\'e}olocalis\IeC {\'e}s}{0}}}
\@writefile{nav}{\headcommand {\beamer@framepages {34}{35}}}
\newlabel{figure:}{{2}{36}{Fonctionnement des services géolocalisés}{Doc-Start}{}}
\@writefile{snm}{\beamer@slide {figure:}{36}}
\@writefile{nav}{\headcommand {\slideentry {3}{2}{2}{36/36}{Fonctionnement des services g\IeC {\'e}olocalis\IeC {\'e}s}{0}}}
\@writefile{nav}{\headcommand {\beamer@framepages {36}{36}}}
\@writefile{toc}{\beamer@subsectionintoc {3}{3}{Classification des services}{37}{0}{3}}
\@writefile{nav}{\headcommand {\beamer@subsectionentry {0}{3}{3}{37}{Classification des services}}\headcommand {\beamer@subsectionpages {34}{36}}}
\@writefile{nav}{\headcommand {\slideentry {3}{3}{1}{37/39}{Classification des services}{0}}}
\@writefile{nav}{\headcommand {\beamer@framepages {37}{39}}}
\newlabel{figure:}{{3}{40}{Classification des services}{Doc-Start}{}}
\@writefile{snm}{\beamer@slide {figure:}{40}}
\@writefile{nav}{\headcommand {\slideentry {3}{3}{2}{40/40}{Classification des services}{0}}}
\@writefile{nav}{\headcommand {\beamer@framepages {40}{40}}}
\newlabel{figure:}{{4}{41}{Classification des services}{Doc-Start}{}}
\@writefile{snm}{\beamer@slide {figure:}{41}}
\@writefile{nav}{\headcommand {\slideentry {3}{3}{3}{41/41}{Classification des services}{0}}}
\@writefile{nav}{\headcommand {\beamer@framepages {41}{41}}}
\@writefile{toc}{\beamer@subsectionintoc {3}{4}{Quelques exemples d'applications}{42}{0}{3}}
\@writefile{nav}{\headcommand {\beamer@subsectionentry {0}{3}{4}{42}{Quelques exemples d'applications}}\headcommand {\beamer@subsectionpages {37}{41}}}
\@writefile{nav}{\headcommand {\slideentry {3}{4}{1}{42/50}{Quelques exemples d'applications}{0}}}
\@writefile{nav}{\headcommand {\beamer@framepages {42}{50}}}
\@writefile{toc}{\beamer@subsectionintoc {3}{5}{Le caract\IeC {\`e}re valeur ajout\IeC {\'e}e des services}{51}{0}{3}}
\@writefile{nav}{\headcommand {\beamer@subsectionentry {0}{3}{5}{51}{Le caract\IeC {\`e}re valeur ajout\IeC {\'e}e des services}}\headcommand {\beamer@subsectionpages {42}{50}}}
\@writefile{nav}{\headcommand {\slideentry {3}{5}{1}{51/54}{Le caract\IeC {\`e}re valeur ajout\IeC {\'e}e des services}{0}}}
\@writefile{nav}{\headcommand {\beamer@framepages {51}{54}}}
\@writefile{toc}{\beamer@subsubsectionintoc {3}{5}{1}{Quelques cas pratiques}{55}{0}{3}}
\@writefile{nav}{\headcommand {\beamer@subsubsectionentry {0}{3}{5}{1}{55}{Quelques cas pratiques}}}
\@writefile{nav}{\headcommand {\slideentry {3}{5}{2}{55/62}{Le caract\IeC {\`e}re valeur ajout\IeC {\'e}e des services}{0}}}
\@writefile{nav}{\headcommand {\beamer@framepages {55}{62}}}
\@writefile{nav}{\headcommand {\slideentry {3}{5}{3}{63/67}{Le caract\IeC {\`e}re valeur ajout\IeC {\'e}e des services}{0}}}
\@writefile{nav}{\headcommand {\beamer@framepages {63}{67}}}
\@writefile{nav}{\headcommand {\slideentry {3}{5}{4}{68/70}{Le caract\IeC {\`e}re valeur ajout\IeC {\'e}e des services}{0}}}
\@writefile{nav}{\headcommand {\beamer@framepages {68}{70}}}
\@writefile{toc}{\beamer@sectionintoc {4}{Quelques inconv\IeC {\'e}nients li\IeC {\'e}s aux services g\IeC {\'e}olocalis\IeC {\'e}s }{71}{0}{4}}
\@writefile{nav}{\headcommand {\sectionentry {4}{Quelques inconv\IeC {\'e}nients li\IeC {\'e}s aux services g\IeC {\'e}olocalis\IeC {\'e}s }{71}{Quelques inconv\IeC {\'e}nients li\IeC {\'e}s aux services g\IeC {\'e}olocalis\IeC {\'e}s }{0}}}
\@writefile{nav}{\headcommand {\beamer@sectionpages {30}{70}}}
\@writefile{nav}{\headcommand {\beamer@subsectionpages {51}{70}}}
\@writefile{nav}{\headcommand {\slideentry {4}{0}{5}{71/71}{}{0}}}
\@writefile{nav}{\headcommand {\beamer@framepages {71}{71}}}
\@writefile{toc}{\beamer@subsectionintoc {4}{1}{Violation de la vie priv\IeC {\'e}e}{72}{0}{4}}
\@writefile{nav}{\headcommand {\beamer@subsectionentry {0}{4}{1}{72}{Violation de la vie priv\IeC {\'e}e}}\headcommand {\beamer@subsectionpages {71}{71}}}
\@writefile{nav}{\headcommand {\slideentry {4}{1}{1}{72/73}{Violation de la vie priv\IeC {\'e}e}{0}}}
\@writefile{nav}{\headcommand {\beamer@framepages {72}{73}}}
\@writefile{toc}{\beamer@subsectionintoc {4}{2}{Exposition des utilisateurs aux cybercriminels}{74}{0}{4}}
\@writefile{nav}{\headcommand {\beamer@subsectionentry {0}{4}{2}{74}{Exposition des utilisateurs aux cybercriminels}}\headcommand {\beamer@subsectionpages {72}{73}}}
\@writefile{nav}{\headcommand {\slideentry {4}{2}{1}{74/76}{Exposition des utilisateurs aux cybercriminels}{0}}}
\@writefile{nav}{\headcommand {\beamer@framepages {74}{76}}}
\@writefile{toc}{\beamer@sectionintoc {5}{Conclusion}{77}{0}{5}}
\@writefile{nav}{\headcommand {\sectionentry {5}{Conclusion}{77}{Conclusion}{0}}}
\@writefile{nav}{\headcommand {\beamer@sectionpages {71}{76}}}
\@writefile{nav}{\headcommand {\beamer@subsectionpages {74}{76}}}
\@writefile{nav}{\headcommand {\slideentry {5}{0}{2}{77/77}{}{0}}}
\@writefile{nav}{\headcommand {\beamer@framepages {77}{77}}}
\@writefile{nav}{\headcommand {\slideentry {5}{0}{3}{78/80}{}{0}}}
\@writefile{nav}{\headcommand {\beamer@framepages {78}{80}}}
\@writefile{nav}{\headcommand {\slideentry {5}{0}{4}{81/81}{}{0}}}
\@writefile{nav}{\headcommand {\beamer@framepages {81}{81}}}
\@writefile{nav}{\headcommand {\beamer@partpages {1}{81}}}
\@writefile{nav}{\headcommand {\beamer@subsectionpages {37}{81}}}
\@writefile{nav}{\headcommand {\beamer@sectionpages {30}{81}}}
\@writefile{nav}{\headcommand {\beamer@documentpages {81}}}
\@writefile{nav}{\headcommand {\def \inserttotalframenumber {31}}}
